\relax 
\citation{Lichtsteiner2008}
\citation{kim2004background}
\citation{zivkovic2004improved}
\citation{Conradt}
\citation{Muller2011}
\citation{Sakaki2010}
\@writefile{toc}{\contentsline {section}{\numberline {I}INTRODUCTION}{1}}
\@writefile{lof}{\contentsline {figure}{\numberline {1}{\ignorespaces The embedded DVS board (left) and a typical sensor recording displayed by integrating events as an image (right)\relax }}{1}}
\providecommand*\caption@xref[2]{\@setref\relax\@undefined{#1}}
\newlabel{fig:edvs128}{{1}{1}}
\citation{isard1998condensation}
\@writefile{toc}{\contentsline {section}{\numberline {II}EVENT-BASED SENSING}{2}}
\newlabel{sec:events}{{II}{2}}
\newlabel{eq:delta_r}{{3}{2}}
\newlabel{eq:delta_theta}{{5}{2}}
\newlabel{eq:decay_model}{{6}{2}}
\newlabel{eq:decay_condition}{{7}{2}}
\newlabel{eq:decay_solution}{{8}{2}}
\@writefile{toc}{\contentsline {section}{\numberline {III}EVENT-BASED PARTICLE FILTERING}{2}}
\newlabel{sec:algorithm}{{III}{2}}
\newlabel{eq:score_decay}{{11}{3}}
\newlabel{eq:objective}{{12}{3}}
\newlabel{eq:objective_lines}{{13}{3}}
\@writefile{loa}{\contentsline {algorithm}{\numberline {1}{\ignorespaces Event-based particle filtering\relax }}{3}}
\newlabel{algo:main}{{1}{3}}
\@writefile{loa}{\contentsline {algorithm}{\numberline {2}{\ignorespaces Using batches of size $B$\relax }}{3}}
\newlabel{algo:batch}{{2}{3}}
\@writefile{toc}{\contentsline {section}{\numberline {IV}EVALUATION}{3}}
\newlabel{sec:results}{{IV}{3}}
\@writefile{lof}{\contentsline {figure}{\numberline {2}{\ignorespaces Distance (in meters) between tracked position and real position from ground truth over time\relax }}{3}}
\newlabel{fig:error_xy}{{2}{3}}
\citation{Kato}
\bibdata{event-based}
\bibcite{Conradt}{1}
\bibcite{isard1998condensation}{2}
\bibcite{Kato}{3}
\bibcite{kim2004background}{4}
\bibcite{Lichtsteiner2008}{5}
\bibcite{Muller2011}{6}
\bibcite{Sakaki2010}{7}
\bibcite{zivkovic2004improved}{8}
\bibstyle{plain}
\@writefile{lof}{\contentsline {figure}{\numberline {3}{\ignorespaces Robot with sensor and the pre-recorded ceiling map (color/edges) viewed from robot's perspective\relax }}{4}}
\newlabel{fig:robot_and_ceiling}{{3}{4}}
\@writefile{lof}{\contentsline {figure}{\numberline {4}{\ignorespaces Robot with marker and captured ground truth data\relax }}{4}}
\newlabel{fig:ground_truth}{{4}{4}}
\@writefile{lot}{\contentsline {table}{\numberline {I}{\ignorespaces Algorithm runtime for selected parameters\relax }}{4}}
\newlabel{tab:runtime}{{I}{4}}
\@writefile{toc}{\contentsline {section}{\numberline {V}CONCLUSIONS}{4}}
\@writefile{toc}{\contentsline {section}{References}{4}}
\@writefile{lof}{\contentsline {figure}{\numberline {5}{\ignorespaces Tracking results from simulation and experimental data: depicted are raw tracking results (black), smoothed tracking results using a mean filter (blue) and ground truth (red). Axes units are meters.\relax }}{5}}
\newlabel{fig:results}{{5}{5}}
