29	61
33	28
45	29
60	31
44	38
35	49
46	52
52	62
62	53
26	71
24	88
27	107
35	75
44	85
52	75
59	66
52	83
53	93
46	124
52	100
54	107
63	124
69	30
67	37
71	45
75	44
68	52
84	38
84	41
92	47
85	51
123	27
110	52
125	43
115	49
70	77
75	68
77	75
70	82
66	93
76	93
89	70
84	84
78	98
67	118
75	118
76	125
93	99
83	117
91	117
101	78
106	67
99	87
110	85
105	94
115	65
126	69
125	78
115	94
106	99
107	107
101	115
98	122
108	114
127	101
125	106
114	115
127	118
37	135
45	146
55	138
60	131
54	149
52	154
34	182
47	182
42	187
52	165
50	181
61	189
25	199
28	251
46	201
47	213
47	218
52	206
51	211
51	223
58	214
37	226
35	234
45	228
33	246
51	229
61	236
53	242
51	249
65	132
76	142
67	147
77	147
81	143
91	133
92	156
67	175
78	174
69	187
75	181
78	185
83	182
82	189
102	148
100	155
107	146
113	133
123	131
117	145
126	147
107	179
108	188
125	163
118	183
75	197
75	202
71	213
67	219
75	213
86	198
82	204
95	205
81	215
85	219
90	221
69	226
75	236
84	230
91	229
90	238
83	247
83	250
92	246
103	196
100	203
105	222
118	223
123	219
99	235
108	234
118	238
124	229
116	255
123	243
135	26
141	37
129	52
135	61
140	58
149	35
156	35
157	44
167	28
168	36
170	55
185	42
185	57
132	69
140	69
141	74
133	84
133	93
147	85
146	94
135	100
132	108
138	107
133	120
149	98
149	116
170	74
165	84
163	89
185	72
187	88
165	116
180	107
181	122
193	36
194	43
204	44
197	59
205	61
232	38
233	56
254	35
202	76
199	92
217	72
211	85
202	101
201	119
212	108
215	122
231	71
236	84
244	87
233	109
236	117
250	105
244	124
136	132
132	150
140	172
132	189
147	171
156	174
173	138
175	155
178	134
181	158
175	167
172	174
188	172
181	189
133	193
140	194
140	206
138	213
140	219
145	221
159	212
135	227
141	238
148	233
150	241
147	253
159	243
158	253
162	196
165	222
187	212
170	229
165	244
200	135
202	147
210	149
218	154
201	168
213	175
221	165
231	137
228	168
235	182
251	168
244	186
194	196
206	201
194	212
214	203
194	225
195	237
203	225
203	251
215	236
220	245
227	211
247	200
252	216
228	234
228	247
253	231
245	253
39	267
53	271
58	258
61	269
58	285
38	303
44	292
34	315
55	291
60	291
57	301
54	310
51	318
44	324
51	322
62	330
60	342
37	353
35	364
43	358
33	377
46	378
58	357
55	383
61	381
78	260
68	273
69	281
75	275
84	261
90	268
85	283
67	293
66	298
78	294
74	297
65	316
83	294
92	297
83	309
95	314
111	259
99	282
105	276
118	268
114	284
126	283
102	291
99	300
107	291
108	300
98	313
105	307
107	319
118	293
125	291
118	309
121	309
68	322
65	334
75	323
85	323
81	333
67	359
76	355
78	364
67	369
86	358
85	367
90	362
91	370
99	325
100	332
105	326
105	332
100	339
122	337
123	349
102	366
100	373
107	369
118	354
124	365
119	372
126	372
43	390
35	411
44	405
47	412
51	391
51	396
61	393
54	402
49	412
59	403
34	422
41	427
43	438
59	419
53	436
61	437
59	447
56	461
68	388
78	390
76	406
84	388
91	401
66	417
68	428
76	430
77	436
85	417
90	417
81	435
92	443
97	386
101	396
97	413
111	403
127	387
119	403
109	418
108	425
103	437
126	421
115	435
124	438
127	446
74	459
88	458
103	461
119	455
151	258
146	269
156	260
138	292
133	315
150	294
154	290
150	316
163	265
167	277
172	273
171	286
177	276
163	293
170	292
168	309
183	292
183	307
129	325
133	335
134	343
147	335
153	341
129	353
142	354
132	381
143	383
150	361
170	326
185	325
184	347
166	373
182	378
202	260
217	261
220	286
211	311
223	311
220	314
233	259
233	283
242	257
252	285
229	292
237	309
249	311
198	322
196	341
193	347
203	349
221	331
212	351
194	357
202	366
198	374
198	382
218	357
219	362
209	371
213	381
223	375
222	381
235	325
250	343
230	362
233	356
228	378
236	373
237	382
250	360
245	380
249	382
133	390
135	397
140	390
141	410
148	390
157	410
132	423
137	431
140	438
143	443
149	418
159	428
168	394
169	404
187	389
173	427
165	445
170	445
180	425
132	457
148	459
166	457
188	453
207	387
203	411
213	387
222	413
195	420
206	418
213	419
213	427
220	435
226	385
235	385
236	398
230	403
226	413
245	390
246	396
252	387
252	395
254	407
233	417
237	427
226	434
237	439
234	444
245	430
251	428
201	457
236	461
246	456
260	56
282	43
283	52
297	56
311	40
266	69
278	71
261	104
261	119
276	127
296	87
331	53
344	39
363	43
340	76
344	121
378	68
360	102
376	101
376	122
261	158
279	137
270	171
267	181
281	168
310	155
268	202
280	215
259	231
280	232
316	205
296	237
341	134
329	183
365	138
373	155
332	202
342	204
326	252
346	233
378	196
373	220
374	228
406	58
421	39
422	55
441	39
444	60
407	88
390	124
427	87
441	75
428	108
435	102
439	119
451	43
455	60
467	39
489	40
486	56
504	37
505	61
459	72
456	90
470	67
475	83
460	119
471	103
467	120
483	70
485	90
493	108
492	124
503	120
389	137
392	151
403	156
389	171
394	187
408	173
410	187
443	134
443	149
427	165
426	185
441	171
391	202
390	217
408	201
394	234
411	228
406	248
424	201
426	218
442	202
436	220
423	247
441	234
439	249
458	136
457	153
476	138
458	170
454	184
471	184
484	137
492	155
500	132
492	185
505	169
504	184
453	218
467	213
453	235
458	225
459	249
468	232
474	246
490	204
483	215
503	196
505	215
489	234
509	252
267	282
259	292
262	316
282	295
282	317
309	283
296	296
263	331
263	346
284	331
281	342
262	364
258	372
261	379
266	382
279	356
296	325
316	325
298	359
314	374
326	276
333	274
331	284
339	269
341	276
342	295
338	309
350	313
357	278
379	283
361	315
377	300
377	315
329	325
343	329
334	365
325	374
331	380
346	374
360	323
375	343
363	372
374	363
376	373
261	388
266	385
258	404
257	411
267	415
260	442
267	441
279	421
298	393
317	397
296	422
318	429
318	442
257	462
310	460
321	414
335	406
339	387
347	389
334	442
349	422
345	442
365	391
357	403
375	404
356	417
355	442
376	425
330	456
348	453
349	460
359	454
396	261
390	279
404	278
393	307
398	315
429	269
425	282
439	260
437	284
423	294
437	297
439	312
389	332
397	321
410	342
390	361
394	372
408	355
407	374
424	332
427	346
437	326
444	346
437	358
435	378
457	282
469	277
456	294
460	315
468	294
471	311
491	277
505	261
500	279
489	298
508	293
453	331
457	344
472	323
475	343
456	360
458	378
475	359
484	332
487	347
503	333
490	362
503	357
503	378
396	412
404	388
402	394
403	411
413	413
402	427
412	435
430	389
430	395
426	404
444	412
429	434
406	461
421	453
440	456
450	403
452	414
459	405
459	413
478	388
465	412
477	401
455	418
455	428
459	438
479	443
499	393
500	413
507	406
483	428
491	435
500	419
509	422
508	433
507	446
453	453
467	458
486	455
499	454
523	58
535	56
552	59
566	56
524	91
532	75
522	103
518	122
536	105
535	120
553	74
547	90
571	72
553	117
571	122
583	39
586	54
596	38
598	56
582	90
597	76
597	89
589	115
601	100
521	155
533	154
518	186
539	164
553	147
568	171
569	187
521	218
532	215
521	234
524	252
540	252
555	202
554	213
564	204
566	213
553	235
550	250
573	232
565	251
588	136
584	157
598	138
597	153
586	163
598	171
598	184
588	215
598	217
587	232
581	250
516	267
517	278
534	262
518	299
521	311
533	313
556	260
554	275
569	268
571	278
551	316
566	296
564	309
525	325
517	347
539	345
519	359
524	371
534	363
539	378
553	329
551	347
568	331
569	345
553	364
548	372
572	363
571	372
579	265
587	282
599	262
599	282
589	293
588	308
602	298
598	311
582	327
588	341
599	323
596	341
583	359
582	374
603	375
523	398
522	411
533	397
539	414
518	418
517	428
516	436
525	446
538	422
539	437
548	399
549	405
554	412
564	393
574	405
550	433
558	437
557	444
565	445
572	436
573	445
530	457
550	459
567	455
583	388
598	391
597	403
596	413
579	437
596	418
601	444
580	456
602	458
